{
	"info": {
		"_postman_id": "cf661782-ef39-49a6-b8cd-13d28e004ec8",
		"name": "ABM - Sistema Tutoria #01",
		"schema": "https://schema.getpostman.com/json/collection/v2.1.0/collection.json"
	},
	"item": [
		{
			"name": "ABM Usuario",
			"item": [
				{
					"name": "Obtener todos los usuarios",
					"request": {
						"method": "GET",
						"header": [],
						"url": {
							"raw": "{{url_local}}/usuarios/all",
							"host": [
								"{{url_local}}"
							],
							"path": [
								"usuarios",
								"all"
							]
						},
						"description": "En caso de error resuelve un objeto con prop. \"error\" sino \"response\""
					},
					"response": [
						{
							"name": "Success response",
							"originalRequest": {
								"method": "GET",
								"header": [],
								"url": {
									"raw": "localhost:3000/usuarios/all",
									"host": [
										"localhost"
									],
									"port": "3000",
									"path": [
										"usuarios",
										"all"
									]
								}
							},
							"status": "OK",
							"code": 200,
							"_postman_previewlanguage": "json",
							"header": [
								{
									"key": "0",
									"value": "Content-Type"
								},
								{
									"key": "1",
									"value": "application/json"
								},
								{
									"key": "X-Powered-By",
									"value": "Express"
								},
								{
									"key": "Content-Type",
									"value": "application/json; charset=utf-8"
								},
								{
									"key": "Content-Length",
									"value": "261"
								},
								{
									"key": "ETag",
									"value": "W/\"105-BGtok1oPZk2mUpXZWJPGKMkURAY\""
								},
								{
									"key": "Date",
									"value": "Sat, 30 May 2020 14:07:12 GMT"
								},
								{
									"key": "Connection",
									"value": "keep-alive"
								}
							],
							"cookie": [],
							"body": "{\n    \"response\": [\n        {\n            \"id\": 1,\n            \"nombre\": \"Alex\",\n            \"apellido\": \"Casadevall\",\n            \"usuario\": \"lexcasa\",\n            \"clave\": \"b75bd008d5fecb1f50cf026532e8ae67\",\n            \"activo\": 1\n        },\n        {\n            \"id\": 2,\n            \"nombre\": \"Juan\",\n            \"apellido\": \"Casadevall\",\n            \"usuario\": \"juancasa\",\n            \"clave\": \"202cb962ac59075b964b07152d234b70\",\n            \"activo\": 1\n        }\n    ]\n}"
						},
						{
							"name": "Error response",
							"originalRequest": {
								"method": "GET",
								"header": [],
								"url": {
									"raw": "localhost:3000/usuarios/all",
									"host": [
										"localhost"
									],
									"port": "3000",
									"path": [
										"usuarios",
										"all"
									]
								}
							},
							"status": "OK",
							"code": 200,
							"_postman_previewlanguage": "json",
							"header": [
								{
									"key": "0",
									"value": "Content-Type"
								},
								{
									"key": "1",
									"value": "application/json"
								},
								{
									"key": "X-Powered-By",
									"value": "Express"
								},
								{
									"key": "Content-Type",
									"value": "application/json; charset=utf-8"
								},
								{
									"key": "Content-Length",
									"value": "261"
								},
								{
									"key": "ETag",
									"value": "W/\"105-BGtok1oPZk2mUpXZWJPGKMkURAY\""
								},
								{
									"key": "Date",
									"value": "Sat, 30 May 2020 14:07:12 GMT"
								},
								{
									"key": "Connection",
									"value": "keep-alive"
								}
							],
							"cookie": [],
							"body": "{\n    \"error\":\"No existe usuarios\"\n}"
						}
					]
				},
				{
					"name": "Obtener usuario por ID",
					"request": {
						"method": "GET",
						"header": [],
						"url": {
							"raw": "{{url_local}}/usuario/1",
							"host": [
								"{{url_local}}"
							],
							"path": [
								"usuario",
								"1"
							]
						},
						"description": "Obtener un usuario por ID, corroborar ejemplos de posibles respuestas."
					},
					"response": [
						{
							"name": "Success response",
							"originalRequest": {
								"method": "GET",
								"header": [],
								"url": {
									"raw": "{{url_local}}/usuario/1",
									"host": [
										"{{url_local}}"
									],
									"path": [
										"usuario",
										"1"
									]
								}
							},
							"status": "OK",
							"code": 200,
							"_postman_previewlanguage": "json",
							"header": [
								{
									"key": "0",
									"value": "Content-Type"
								},
								{
									"key": "1",
									"value": "application/json"
								},
								{
									"key": "X-Powered-By",
									"value": "Express"
								},
								{
									"key": "Content-Type",
									"value": "application/json; charset=utf-8"
								},
								{
									"key": "Content-Length",
									"value": "135"
								},
								{
									"key": "ETag",
									"value": "W/\"87-sNAPBGw4DWEy12XqFThasHPeK6A\""
								},
								{
									"key": "Date",
									"value": "Sat, 30 May 2020 14:23:26 GMT"
								},
								{
									"key": "Connection",
									"value": "keep-alive"
								}
							],
							"cookie": [],
							"body": "{\n    \"response\": {\n        \"id\": 1,\n        \"nombre\": \"Alex\",\n        \"apellido\": \"Casadevall\",\n        \"usuario\": \"lexcasa\",\n        \"clave\": \"b75bd008d5fecb1f50cf026532e8ae67\",\n        \"activo\": 1\n    }\n}"
						},
						{
							"name": "Error response",
							"originalRequest": {
								"method": "GET",
								"header": [],
								"url": {
									"raw": "{{url_local}}/usuario/123123",
									"host": [
										"{{url_local}}"
									],
									"path": [
										"usuario",
										"123123"
									]
								}
							},
							"status": "OK",
							"code": 200,
							"_postman_previewlanguage": "json",
							"header": [
								{
									"key": "0",
									"value": "Content-Type"
								},
								{
									"key": "1",
									"value": "application/json"
								},
								{
									"key": "X-Powered-By",
									"value": "Express"
								},
								{
									"key": "Content-Type",
									"value": "application/json; charset=utf-8"
								},
								{
									"key": "Content-Length",
									"value": "135"
								},
								{
									"key": "ETag",
									"value": "W/\"87-sNAPBGw4DWEy12XqFThasHPeK6A\""
								},
								{
									"key": "Date",
									"value": "Sat, 30 May 2020 14:23:26 GMT"
								},
								{
									"key": "Connection",
									"value": "keep-alive"
								}
							],
							"cookie": [],
							"body": "{\n    \"error\": \"No existe el usuario con ID: 123123\"\n}"
						}
					]
				},
				{
					"name": "Insertar el usuario",
					"request": {
						"method": "POST",
						"header": [],
						"body": {
							"mode": "raw",
							"raw": "{\n\t\"nombre\":\"Pedro\",\n\t\"apellido\":\"Casa\",\n\t\"usuario\":\"pepe.casa\",\n\t\"clave\":\"123\"\n}",
							"options": {
								"raw": {
									"language": "json"
								}
							}
						},
						"url": {
							"raw": "{{url_local}}/usuario/new",
							"host": [
								"{{url_local}}"
							],
							"path": [
								"usuario",
								"new"
							]
						}
					},
					"response": [
						{
							"name": "Error response",
							"originalRequest": {
								"method": "POST",
								"header": [],
								"body": {
									"mode": "raw",
									"raw": "{\n\t\"nombre\":\"\",\n\t\"apellido\":\"Casa\",\n\t\"usuario\":\"pepe.casa\",\n\t\"clave\":\"123\"\n}",
									"options": {
										"raw": {
											"language": "json"
										}
									}
								},
								"url": {
									"raw": "{{url_local}}/usuario/new",
									"host": [
										"{{url_local}}"
									],
									"path": [
										"usuario",
										"new"
									]
								}
							},
							"status": "OK",
							"code": 200,
							"_postman_previewlanguage": "json",
							"header": [
								{
									"key": "0",
									"value": "Content-Type"
								},
								{
									"key": "1",
									"value": "application/json"
								},
								{
									"key": "X-Powered-By",
									"value": "Express"
								},
								{
									"key": "Content-Type",
									"value": "application/json; charset=utf-8"
								},
								{
									"key": "Content-Length",
									"value": "47"
								},
								{
									"key": "ETag",
									"value": "W/\"2f-5LPkTtLO2XzOSPEFSERivskcFzk\""
								},
								{
									"key": "Date",
									"value": "Sat, 30 May 2020 14:38:19 GMT"
								},
								{
									"key": "Connection",
									"value": "keep-alive"
								}
							],
							"cookie": [],
							"body": "{\n  \"error\": \"Error al ingresar el usuario.\"\n}"
						},
						{
							"name": "Success response",
							"originalRequest": {
								"method": "POST",
								"header": [],
								"body": {
									"mode": "raw",
									"raw": "{\n\t\"nombre\":\"Pedro\",\n\t\"apellido\":\"Casa\",\n\t\"usuario\":\"pepe.casa\",\n\t\"clave\":\"123\"\n}",
									"options": {
										"raw": {
											"language": "json"
										}
									}
								},
								"url": {
									"raw": "{{url_local}}/usuario/new",
									"host": [
										"{{url_local}}"
									],
									"path": [
										"usuario",
										"new"
									]
								}
							},
							"status": "OK",
							"code": 200,
							"_postman_previewlanguage": "json",
							"header": [
								{
									"key": "0",
									"value": "Content-Type"
								},
								{
									"key": "1",
									"value": "application/json"
								},
								{
									"key": "X-Powered-By",
									"value": "Express"
								},
								{
									"key": "Content-Type",
									"value": "application/json; charset=utf-8"
								},
								{
									"key": "Content-Length",
									"value": "47"
								},
								{
									"key": "ETag",
									"value": "W/\"2f-5LPkTtLO2XzOSPEFSERivskcFzk\""
								},
								{
									"key": "Date",
									"value": "Sat, 30 May 2020 14:38:19 GMT"
								},
								{
									"key": "Connection",
									"value": "keep-alive"
								}
							],
							"cookie": [],
							"body": "{\n    \"response\": \"Usuario ingresado correctamente.\"\n}"
						}
					]
				},
				{
					"name": "Editar usuario por ID",
					"request": {
						"method": "PUT",
						"header": [],
						"body": {
							"mode": "raw",
							"raw": "{\n\t\"nombre\":\"Buenas\",\n\t\"apellido\":\"Casa\",\n\t\"usuario\":\"pepe.casa\",\n\t\"activo\":0\n}",
							"options": {
								"raw": {
									"language": "json"
								}
							}
						},
						"url": {
							"raw": "{{url_local}}/usuario/edit/2",
							"host": [
								"{{url_local}}"
							],
							"path": [
								"usuario",
								"edit",
								"2"
							]
						}
					},
					"response": [
						{
							"name": "Error response",
							"originalRequest": {
								"method": "PUT",
								"header": [],
								"body": {
									"mode": "raw",
									"raw": "{\n\t\"nombre\":\"\",\n\t\"apellido\":\"Casa\",\n\t\"usuario\":\"pepe.casa\",\n\t\"activo\":0\n}",
									"options": {
										"raw": {
											"language": "json"
										}
									}
								},
								"url": {
									"raw": "{{url_local}}/usuario/edit/2",
									"host": [
										"{{url_local}}"
									],
									"path": [
										"usuario",
										"edit",
										"2"
									]
								}
							},
							"status": "OK",
							"code": 200,
							"_postman_previewlanguage": "json",
							"header": [
								{
									"key": "0",
									"value": "Content-Type"
								},
								{
									"key": "1",
									"value": "application/json"
								},
								{
									"key": "X-Powered-By",
									"value": "Express"
								},
								{
									"key": "Content-Type",
									"value": "application/json; charset=utf-8"
								},
								{
									"key": "Content-Length",
									"value": "49"
								},
								{
									"key": "ETag",
									"value": "W/\"31-gSAKDHHcoK4dfimRTBBPO53IxIY\""
								},
								{
									"key": "Date",
									"value": "Sat, 30 May 2020 14:49:53 GMT"
								},
								{
									"key": "Connection",
									"value": "keep-alive"
								}
							],
							"cookie": [],
							"body": "{\n  \"error\": \"Error al actualizar el usuario.\"\n}"
						},
						{
							"name": "Success response",
							"originalRequest": {
								"method": "PUT",
								"header": [],
								"body": {
									"mode": "raw",
									"raw": "{\n\t\"nombre\":\"Buenas\",\n\t\"apellido\":\"Casa\",\n\t\"usuario\":\"pepe.casa\",\n\t\"activo\":0\n}",
									"options": {
										"raw": {
											"language": "json"
										}
									}
								},
								"url": {
									"raw": "{{url_local}}/usuario/edit/2",
									"host": [
										"{{url_local}}"
									],
									"path": [
										"usuario",
										"edit",
										"2"
									]
								}
							},
							"status": "OK",
							"code": 200,
							"_postman_previewlanguage": "json",
							"header": [
								{
									"key": "0",
									"value": "Content-Type"
								},
								{
									"key": "1",
									"value": "application/json"
								},
								{
									"key": "X-Powered-By",
									"value": "Express"
								},
								{
									"key": "Content-Type",
									"value": "application/json; charset=utf-8"
								},
								{
									"key": "Content-Length",
									"value": "49"
								},
								{
									"key": "ETag",
									"value": "W/\"31-gSAKDHHcoK4dfimRTBBPO53IxIY\""
								},
								{
									"key": "Date",
									"value": "Sat, 30 May 2020 14:49:53 GMT"
								},
								{
									"key": "Connection",
									"value": "keep-alive"
								}
							],
							"cookie": [],
							"body": "{\n    \"response\": \"Usuario actualizado correctamente.\"\n}"
						}
					]
				},
				{
					"name": "Eliminar un usuario por ID",
					"request": {
						"method": "DELETE",
						"header": [],
						"url": {
							"raw": "{{url_local}}/usuario/delete/7",
							"host": [
								"{{url_local}}"
							],
							"path": [
								"usuario",
								"delete",
								"7"
							]
						}
					},
					"response": [
						{
							"name": "Error response",
							"originalRequest": {
								"method": "DELETE",
								"header": [],
								"url": {
									"raw": "{{url_local}}/usuario/delete/1233",
									"host": [
										"{{url_local}}"
									],
									"path": [
										"usuario",
										"delete",
										"1233"
									]
								}
							},
							"status": "OK",
							"code": 200,
							"_postman_previewlanguage": "json",
							"header": [
								{
									"key": "0",
									"value": "Content-Type"
								},
								{
									"key": "1",
									"value": "application/json"
								},
								{
									"key": "X-Powered-By",
									"value": "Express"
								},
								{
									"key": "Content-Type",
									"value": "application/json; charset=utf-8"
								},
								{
									"key": "Content-Length",
									"value": "47"
								},
								{
									"key": "ETag",
									"value": "W/\"2f-WhCWgbAyo+qr8OaqHeJIAz4xXNQ\""
								},
								{
									"key": "Date",
									"value": "Sat, 30 May 2020 15:12:17 GMT"
								},
								{
									"key": "Connection",
									"value": "keep-alive"
								}
							],
							"cookie": [],
							"body": "{\n  \"error\": \"Error al eliminar el usuario.\"\n}"
						},
						{
							"name": "Success response",
							"originalRequest": {
								"method": "DELETE",
								"header": [],
								"url": {
									"raw": "{{url_local}}/usuario/delete/7",
									"host": [
										"{{url_local}}"
									],
									"path": [
										"usuario",
										"delete",
										"7"
									]
								}
							},
							"status": "OK",
							"code": 200,
							"_postman_previewlanguage": "json",
							"header": [
								{
									"key": "0",
									"value": "Content-Type"
								},
								{
									"key": "1",
									"value": "application/json"
								},
								{
									"key": "X-Powered-By",
									"value": "Express"
								},
								{
									"key": "Content-Type",
									"value": "application/json; charset=utf-8"
								},
								{
									"key": "Content-Length",
									"value": "47"
								},
								{
									"key": "ETag",
									"value": "W/\"2f-WhCWgbAyo+qr8OaqHeJIAz4xXNQ\""
								},
								{
									"key": "Date",
									"value": "Sat, 30 May 2020 15:12:17 GMT"
								},
								{
									"key": "Connection",
									"value": "keep-alive"
								}
							],
							"cookie": [],
							"body": "{\n    \"response\": \"Usuario eliminado correctamente.\"\n}"
						}
					]
				}
			],
			"protocolProfileBehavior": {}
		}
	],
	"protocolProfileBehavior": {}
}